{
  "capabilities":
  [
        {
      "browserName": "MicrosoftEdge",
      "maxInstances": 5,
      "platform": "WINDOWS",
      "seleniumProtocol": "WebDriver"
    }
  ],
  "proxy": "org.openqa.grid.selenium.proxy.DefaultRemoteProxy",
  "maxSession": 5,
  "register": true,
  "registerCycle": 5000,
  "hub": "http://192.168.1.12:4444",
  "host": "192.168.1.12",
  "nodeStatusCheckTimeout": 5000,
  "nodePolling": 5000,
  "role": "node",
  "unregisterIfStillDownAfter": 60000,
  "downPollingLimit": 2,
  "debug": false,
  "servlets" : [],
  "withoutServlets": [],
  "custom": {}
}